Experiment 1: Pre-registration code
…
df_ppt_bots = df_e1 %>%
  filter(type == "bot_check") %>%
  mutate(b1_correct = B1 == 2,
         b2_correct = B2 == "Chair")

df_bot_summ = df_ppt_bots %>%
  group_by(subject) %>%
  summarise(bot_avg = (b1_correct + b2_correct) / 2)

## `summarise()` ungrouping output (override with `.groups` argument)

df_bot_summ

## # A tibble: 216 x 2
##    subject    bot_avg
##    <chr>        <dbl>
##  1 06za8waveg     1  
##  2 0ajdaa03qg     1  
##  3 0dejv51fpt     1  
##  4 0dzgg6yv9f     1  
##  5 0gume44e3x     0.5
##  6 0kzq00hzcv     1  
##  7 0tbxffl3va     1  
##  8 0tcxalq3x6     1  
##  9 0w79pn4dga     1  
## 10 15fqjmdyck     1  
## #  with 206 more rows
…
